^C:\USERS\WOLK1\ONEDRIVE\РАБОЧИЙ СТОЛ\NEW FOLDER (2)\CONSOLEAPPLICATION1\CONSOLEAPPLICATION1.CPP
C:\USERS\WOLK1\ONEDRIVE\Рабочий стол\NEW FOLDER (2)\CONSOLEAPPLICATION1\X64\DEBUG\VC143.PDB
C:\USERS\WOLK1\ONEDRIVE\Рабочий стол\NEW FOLDER (2)\CONSOLEAPPLICATION1\X64\DEBUG\VC143.IDB
C:\USERS\WOLK1\ONEDRIVE\Рабочий стол\NEW FOLDER (2)\CONSOLEAPPLICATION1\X64\DEBUG\CONSOLEAPPLICATION1.OBJ
